DEFINE VARIABLE hndChkQDyn AS HANDLE     NO-UNDO.

FUNCTION CHK-SORTBY     RETURN LOGICAL   (INPUT pfHq AS HANDLE)     IN hndChkQDyn.
FUNCTION CHK-INIT-WIDX  RETURN LOGICAL   (INPUT  pfHq AS HANDLE)    IN hndChkQDyn.
FUNCTION CHK-GETVALUE   RETURN CHARACTER (INPUT pfVar AS CHARACTER) IN hndChkQDyn.
FUNCTION CHK-SETVALUE RETURN LOGICAL (INPUT pfVar AS CHARACTER, INPUT pfVal AS CHARACTER) IN hndChkQDyn.
