DEF VAR hFileOpen AS HANDLE NO-UNDO.

FUNCTION SetTitre  RETURNS LOG (INPUT CHAR) IN hFileOpen.
FUNCTION SetFiltre RETURNS LOG (INPUT CHAR) IN hFileOpen.
FUNCTION SetFiltreParDefaut RETURNS LOG (INPUT INT) IN hFileOpen.
FUNCTION SetFileStart RETURNS LOG (INPUT CHAR) IN hFileOpen.
FUNCTION SetDirectory RETURNS LOG (INPUT CHAR) IN hFileOpen.
FUNCTION SetMultiSelect RETURNS LOG () IN hFileOpen.
FUNCTION SetCreatePrompt RETURNS LOG () IN hFileOpen.
FUNCTION SetNotAsp RETURNS LOG IN hFileOpen.
FUNCTION SetAskOverwrite RETURNS LOG IN hFileOpen.
FUNCTION HideFileMustExist RETURNS LOG IN hFileOpen.
