/*
Auteur    : SJ
Date      : 10/06
*/

DEFINE VARIABLE HndPocErg AS HANDLE     NO-UNDO.

/* Pour le Titre */
FUNCTION SET-TITLE RETURN LOG (INPUT PFrameHnd AS HANDLE, INPUT pfTitle AS CHAR) in HndPocErg.
FUNCTION SET-TITLE-COULEUR RETURN LOG (INPUT PFrameHnd AS HANDLE, INPUT pfTitle AS CHAR, INPUT ptyppgm AS CHAR) in HndPocErg. /*$COUL*/
FUNCTION MAJ-TITLE RETURN LOG (INPUT PFrameHnd AS HANDLE, INPUT pfTitle AS CHAR) in HndPocErg.
FUNCTION GET-TITLE RETURN CHAR (INPUT PFrameHnd AS HANDLE) in HndPocErg.


/* Pour le Resize */
FUNCTION DO-RESIZELOAD      RETURN LOG in HndPocErg.
FUNCTION ADD-RESIZEWIDGET   RETURN LOG (INPUT pfHnd AS WIDGET-HANDLE, INPUT pfStrRes AS CHAR) in HndPocErg.
FUNCTION ADD-RESIZEWIDGET-P RETURN LOG (INPUT pfHnd AS WIDGET-HANDLE, INPUT pfStrRes AS CHAR, INPUT pfPourcX AS INT, INPUT pfPourcY AS INT) in HndPocErg.
FUNCTION ADD-RESIZEBWDYN    RETURN LOG (INPUT pfHnd AS WIDGET-HANDLE, INPUT pfStrRes AS CHAR) in HndPocErg.
FUNCTION ADD-RESIZEBWDYN-P  RETURN LOG (INPUT pfHnd AS WIDGET-HANDLE, INPUT pfStrRes AS CHAR, INPUT pfPourcX AS INT, INPUT pfPourcY AS INT) in HndPocErg.
FUNCTION DEL-RESIZEWIDGET   RETURN LOG (INPUT pfHnd AS WIDGET-HANDLE) in HndPocErg.
FUNCTION SET-RESIZEVALUE    RETURN LOG (INPUT pfVar AS CHAR, INPUT pfVal AS CHAR) in HndPocErg.
FUNCTION SET-RESIZECUM      RETURN LOG (INPUT pfHnd AS WIDGET-HANDLE, INPUT pfCum AS LOG) in HndPocErg.
FUNCTION SET-RESIZEPOURC    RETURN LOG (INPUT pfHnd AS WIDGET-HANDLE, INPUT pfPourcX AS INT, INPUT pfPourcY AS INT, INPUT pfPourcW AS INT, INPUT pfPourcH AS INT) in HndPocErg.
FUNCTION DO-RESIZEWINDOW    RETURN LOG in HndPocErg.
FUNCTION DO-RESIZEWIDGET    RETURN LOG (INPUT pfHnd AS WIDGET-HANDLE) in HndPocErg.


FUNCTION SAV-RESIZE         RETURN LOG in HndPocErg. /* en + */
FUNCTION MIN-RESIZE         RETURN LOG in HndPocErg. /* en + */
FUNCTION SET-WR-ER          RETURN LOG (INPUT plog AS LOG) in HndPocErg. /* en + */
FUNCTION QUE-WINDOW         RETURN LOG in HndPocErg. /* en + */
FUNCTION SAV-RESIZE-AUTRE   RETURN LOG (INPUT pcle AS CHAR) in HndPocErg. /* en + */
FUNCTION GET-RESIZE-AUTRE   RETURN LOG (INPUT pcle AS CHAR) in HndPocErg. /* en + */
